1	create database myshop
	

2	create table users(
    -> id int auto_increment,
    -> name varchar(255),
    -> email varchar(255),
    -> password varchar(255),
    -> primary key(id)
    -> );

	 create table categories(
    -> id int auto_increment,
    -> nama varchar(255),
    -> primary key(id)
    -> );

	create table items(
    -> id int auto_increment,
    -> name varchar(255),
    -> description varchar(255),
    -> price int,
    -> stock int,
    -> category_id int,
    -> primary key(id),
    -> foreign key(category_id) references categories(id)
    -> );


3	insert into categories(nama) values ("gadget"), ("cloth"), 	("men"), ("women"), ("branded");

	insert into users(name, email, password) values(		
    -> "John Doe", "john@doe.com", "john123"),
    -> ("Jane Doe", "jane@doe.com", "jenita123")
    -> ;


	 insert into items(name, description, price, stock, 	category_id) values (
    -> "Sumsang b50", "hape keren dari merk sumsang", 4000000, 	100, 1),
    -> ("Uniklooh", "baju keren dari brand ternama", 500000, 50, 	2),
    -> ("IMHO Watch", "jam tangan anak yang jujur banget", 	2000000, 10, 1)
    -> ;


4	A) 	select name, email from users;

	B) 	1) select * from items where price > 1000000;

		2) select * from items where name like '%sang%';

	C) 	select items.name, items.description, items.price, 			items.stock, items.category_id, categories.nama as 			kategori from items
    		-> inner join categories on items.category_id = 			categories.id;


5	update items set price = 2500000 where id = 1;




	